Module 2: Exploring & Summarizing Data
…
## Grouping and Summarizing Operations

A very common operation is to do things by group(s) then create new summary variables.

```r
starwars %>% 
  group_by(homeworld) %>% 
  summarise(height = mean(height, na.rm = T),
            mass = mean(mass, na.rm = T)) 
```

```
# A tibble: 49 x 3
   homeworld      height  mass
   <chr>           <dbl> <dbl>
 1 <NA>             139.    82
 2 Alderaan         176.    64
 3 Aleen Minor       79     15
 4 Bespin           175     79
 5 Bestine IV       180    110
 6 Cato Neimoidia   191     90
 7 Cerea            198     82
 8 Champala         196    NaN
 9 Chandrila        150    NaN
10 Concord Dawn     183     79
# … with 39 more rows
```
…
